\relax 
\@writefile{toc}{\contentsline {section}{INTRODUCTION}{2}}
\@writefile{toc}{\contentsline {section}{SYSTEM REQUIREMENTS}{2}}
\@writefile{toc}{\contentsline {section}{LICENSE}{2}}
\@writefile{toc}{\contentsline {section}{RUNNING RAMBO-K}{2}}
\@writefile{toc}{\contentsline {subsection}{References and names}{2}}
\@writefile{toc}{\contentsline {subsection}{Unassigned reads}{2}}
\@writefile{toc}{\contentsline {subsection}{File structure}{2}}
\@writefile{toc}{\contentsline {subsection}{K-mer sizes}{3}}
\@writefile{toc}{\contentsline {subsection}{Cutoffs}{3}}
\@writefile{toc}{\contentsline {subsection}{Number of reads used for simulation}{3}}
\@writefile{toc}{\contentsline {subsection}{Threading}{3}}
\@writefile{toc}{\contentsline {subsection}{Hints}{3}}
\@writefile{toc}{\contentsline {section}{EXAMPLE}{4}}
\@writefile{lof}{\contentsline {figure}{\numberline {1}{\ignorespaces ROC-plots (right) and fitted histograms (left) of mixed reads of pox and human background. Theoretical read separation (as represented by the ROC-plots) and fitting of the score distributions (represented by the fitted histograms) improve with increasing $k$. An optimal choice of values would here be $k=8$ and $c=0$.}}{5}}
\newlabel{fig:1}{{1}{5}}
\@writefile{lof}{\contentsline {figure}{\numberline {2}{\ignorespaces ROC-plots (right) and fitted histograms (left) of mixed reads of bat adenovirus and bat background. Training was executed using bat sequences and more distant canine adenovirus sequences. Theoretical read separation (as represented by the ROC-plots) improves with increasing $k$, but fitting of the score distributions (represented by the fitted histograms) diminishes. This is due to the fact that no k-mers of high length are identical in the canine adenovirus reference and the real dataset. In this case, a compromise must be found. Here, best results are achieved using $k=4$ and $c=0$.}}{6}}
\newlabel{fig:2}{{2}{6}}
\newlabel{LastPage}{{}{6}}
\xdef\lastpage@lastpage{6}
\gdef\lastpage@lastpageHy{}
